"Grlo","Pol","Oždrebljen","Dan","Mesec","Godina","Otac","Majka","Odgajivač","Datum trke","Dan","Mesec","Godina","Starost","Hipodrom","m","Start","Vozač","Trener","Plasman","Vreme","Sekundi","kmh","Zarada","Broj startova","1st","1-3th","Apsolutni rekord","Sekundi","kmh","Ukupna zarada","nId","nOtac","nMajka"
"1","2","25/05/2005","25","5","2005","1867","74","188","06/09/2008","6","9","2008","3","7","1600","1","254","509","0","00:00.0","0","0","0","35","17","23","01:23.6","83.6","43.06","744","7","2","6"
"1","2","25/05/2005","25","5","2005","1867","74","188","05/07/2008","5","7","2008","3","7","1600","1","254","509","0","00:00.0","0","0","0","35","17","23","01:23.6","83.6","43.06","744","7","2","6"
"1","2","25/05/2005","25","5","2005","1867","74","188","01/11/2008","1","11","2008","3","35","1600","1","254","509","0","00:00.0","0","0","0","35","17","23","01:23.6","83.6","43.06","744","7","2","6"
"1","2","25/05/2005","25","5","2005","1867","74","188","26/10/2008","26","10","2008","3","2","2140","2","254","509","0","00:00.0","0","0","0","35","17","23","01:23.6","83.6","43.06","744","7","2","6"
"1","2","25/05/2005","25","5","2005","1867","74","188","19/04/2008","19","4","2008","3","7","2100","3","466","509","0","01:29.9","89.9","40.04","0","35","17","23","01:23.6","83.6","43.06","744","7","2","6"
"1","2","25/05/2005","25","5","2005","1867","74","188","01/05/2010","1","5","2010","5","7","1600","1","649","509","0","00:00.0","0","0","0","35","17","23","01:23.6","83.6","43.06","744","7","2","6"
"1","2","25/05/2005","25","5","2005","1867","74","188","19/07/2009","19","7","2009","4","20","2100","1","649","509","0","00:00.0","0","0","0","35","17","23","01:23.6","83.6","43.06","744","7","2","6"
"1","2","25/05/2005","25","5","2005","1867","74","188","01/05/2009","1","5","2009","4","24","1800","1","649","509","0","00:00.0","0","0","0","35","17","23","01:23.6","83.6","43.06","744","7","2","6"
"1","2","25/05/2005","25","5","2005","1867","74","188","17/10/2009","17","10","2009","4","35","1600","1","649","509","0","00:00.0","0","0","0","35","17","23","01:23.6","83.6","43.06","744","7","2","6"
"1","2","25/05/2005","25","5","2005","1867","74","188","28/06/2009","28","6","2009","4","2","2200","2","649","509","0","00:00.0","0","0","0","35","17","23","01:23.6","83.6","43.06","744","7","2","6"
"1","2","25/05/2005","25","5","2005","1867","74","188","11/04/2010","11","4","2010","5","2","1700","1","648","509","0","00:00.0","0","0","0","35","17","23","01:23.6","83.6","43.06","744","7","2","6"
"1","2","25/05/2005","25","5","2005","1867","74","188","17/05/2009","17","5","2009","4","2","2200","1","648","509","0","00:00.0","0","0","0","35","17","23","01:23.6","83.6","43.06","744","7","2","6"
"1","2","25/05/2005","25","5","2005","1867","74","188","19/10/2008","19","10","2008","3","2","1600","1","648","509","0","00:00.0","0","0","0","35","17","23","01:23.6","83.6","43.06","744","7","2","6"
"1","2","25/05/2005","25","5","2005","1867","74","188","17/05/2008","17","5","2008","3","8","1600","1","648","509","0","00:00.0","0","0","0","35","17","23","01:23.6","83.6","43.06","744","7","2","6"
"1","2","25/05/2005","25","5","2005","1867","74","188","12/07/2009","12","7","2009","4","17","1600","1","648","509","0","00:00.0","0","0","0","35","17","23","01:23.6","83.6","43.06","744","7","2","6"
"1","2","25/05/2005","25","5","2005","1867","74","188","18/10/2008","18","10","2008","3","22","2100","1","648","509","0","00:00.0","0","0","0","35","17","23","01:23.6","83.6","43.06","744","7","2","6"
"1","2","25/05/2005","25","5","2005","1867","74","188","31/10/2009","31","10","2009","4","37","1600","1","648","509","0","00:00.0","0","0","0","35","17","23","01:23.6","83.6","43.06","744","7","2","6"
"1","2","25/05/2005","25","5","2005","1867","74","188","04/05/2008","4","5","2008","3","45","1600","1","648","509","0","00:00.0","0","0","0","35","17","23","01:23.6","83.6","43.06","744","7","2","6"
"1","2","25/05/2005","25","5","2005","1867","74","188","15/06/2008","15","6","2008","3","49","1609","1","648","509","0","00:00.0","0","0","0","35","17","23","01:23.6","83.6","43.06","744","7","2","6"
"1","2","25/05/2005","25","5","2005","1867","74","188","05/10/2008","5","10","2008","3","2","2220","2","648","509","0","00:00.0","0","0","0","35","17","23","01:23.6","83.6","43.06","744","7","2","6"
"1","2","25/05/2005","25","5","2005","1867","74","188","08/06/2008","8","6","2008","3","2","1700","2","648","509","0","00:00.0","0","0","0","35","17","23","01:23.6","83.6","43.06","744","7","2","6"
"1","2","25/05/2005","25","5","2005","1867","74","188","18/05/2008","18","5","2008","3","2","2240","2","648","509","0","00:00.0","0","0","0","35","17","23","01:23.6","83.6","43.06","744","7","2","6"
"1","2","25/05/2005","25","5","2005","1867","74","188","20/10/2007","20","10","2007","2","22","1600","3","254","509","0","00:00.0","0","0","0","35","17","23","01:23.6","83.6","43.06","744","7","2","6"
"1","2","25/05/2005","25","5","2005","1867","74","188","02/05/2008","2","5","2008","3","7","1600","1","7","509","1","01:23.6","83.6","43.06","84","35","17","23","01:23.6","83.6","43.06","744","7","2","6"
"1","2","25/05/2005","25","5","2005","1867","74","188","25/05/2008","25","5","2008","3","46","1600","1","254","509","1","01:26.0","86","41.86","125","35","17","23","01:23.6","83.6","43.06","744","7","2","6"
"1","2","25/05/2005","25","5","2005","1867","74","188","09/08/2009","9","8","2009","4","52","1600","1","649","509","1","01:21.8","81.8","44.01","80","35","17","23","01:23.6","83.6","43.06","744","7","2","6"
"1","2","25/05/2005","25","5","2005","1867","74","188","02/08/2009","2","8","2009","4","41","1600","1","649","509","1","01:23.1","83.1","43.32","120","35","17","23","01:23.6","83.6","43.06","744","7","2","6"
"1","2","25/05/2005","25","5","2005","1867","74","188","12/07/2009","12","7","2009","4","28","1600","1","649","509","1","01:23.6","83.6","43.06","92","35","17","23","01:23.6","83.6","43.06","744","7","2","6"
"1","2","25/05/2005","25","5","2005","1867","74","188","22/05/2008","22","5","2008","3","21","2240","2","648","509","1","01:26.6","86.6","41.57","125","35","17","23","01:23.6","83.6","43.06","744","7","2","6"
"1","2","25/05/2005","25","5","2005","1867","74","188","11/10/2008","11","10","2008","3","7","1600","1","648","509","2","01:25.2","85.2","42.25","47","35","17","23","01:23.6","83.6","43.06","744","7","2","6"
"1","2","25/05/2005","25","5","2005","1867","74","188","25/07/2009","25","7","2009","4","49","2100","1","648","509","3","01:24.1","84.1","42.81","31.5","35","17","23","01:23.6","83.6","43.06","744","7","2","6"
"1","2","25/05/2005","25","5","2005","1867","74","188","22/06/2008","22","6","2008","3","2","2220","2","648","509","5","01:28.4","88.4","40.72","40","35","17","23","01:23.6","83.6","43.06","744","7","2","6"
"1","2","25/05/2005","25","5","2005","1867","74","188","07/06/2009","7","6","2009","4","2","1700","1","254","509","6","00:00.0","0","0","0","35","17","23","01:23.6","83.6","43.06","744","7","2","6"
"1","2","25/05/2005","25","5","2005","1867","74","188","02/05/2009","2","5","2009","4","7","1600","1","460","509","6","00:00.0","0","0","0","35","17","23","01:23.6","83.6","43.06","744","7","2","6"
"1","2","25/05/2005","25","5","2005","1867","74","188","05/07/2009","5","7","2009","4","7","1600","1","649","509","7","00:00.0","0","0","0","35","17","23","01:23.6","83.6","43.06","744","7","2","6"
"3","1","19/05/2003","19","5","2003","602","13","557","08/09/2007","8","9","2007","4","22","2000","1","443","339","0","00:00.0","0","0","0","7","0","0","01:33.0","93","38.71","0","8","3","5"
"3","1","19/05/2003","19","5","2003","602","13","557","28/10/2006","28","10","2006","3","29","1600","1","434","570","0","00:00.0","0","0","0","7","0","0","01:33.0","93","38.71","0","8","3","5"
"3","1","19/05/2003","19","5","2003","602","13","557","15/07/2006","15","7","2006","3","29","2100","1","434","570","0","00:00.0","0","0","0","7","0","0","01:33.0","93","38.71","0","8","3","5"
"3","1","19/05/2003","19","5","2003","602","13","557","06/08/2006","6","8","2006","3","2","2100","1","443","570","0","00:00.0","0","0","0","7","0","0","01:33.0","93","38.71","0","8","3","5"
"3","1","19/05/2003","19","5","2003","602","13","557","11/09/2006","11","9","2006","3","41","2100","1","443","570","0","01:33.0","93","38.71","0","7","0","0","01:33.0","93","38.71","0","8","3","5"
"3","1","19/05/2003","19","5","2003","602","13","557","30/09/2007","30","9","2007","4","29","1600","1","443","339","8","00:00.0","0","0","0","7","0","0","01:33.0","93","38.71","0","8","3","5"
"3","1","19/05/2003","19","5","2003","602","13","557","01/10/2006","1","10","2006","3","2","2200","1","443","570","12","00:00.0","0","0","0","7","0","0","01:33.0","93","38.71","0","8","3","5"
"4","2","02/05/2007","2","5","2007","205","73","506","10/06/2012","10","6","2012","5","2","2200","1","159","509","0","00:00.0","0","0","0","62","27","68","01:16.6","76.6","47","11847","9","1","4"
"4","2","02/05/2007","2","5","2007","205","73","506","04/08/2012","4","8","2012","5","49","1600","1","391","509","0","00:00.0","0","0","0","62","27","68","01:16.6","76.6","47","11847","9","1","4"
"4","2","02/05/2007","2","5","2007","205","73","506","12/06/2011","12","6","2011","4","2","2240","2","433","509","0","00:00.0","0","0","0","62","27","68","01:16.6","76.6","47","11847","9","1","4"
"4","2","02/05/2007","2","5","2007","205","73","506","27/06/2010","27","6","2010","3","2","1700","1","649","509","0","00:00.0","0","0","0","62","27","68","01:16.6","76.6","47","11847","9","1","4"
"4","2","02/05/2007","2","5","2007","205","73","506","06/05/2011","6","5","2011","4","7","1600","1","649","509","0","00:00.0","0","0","0","62","27","68","01:16.6","76.6","47","11847","9","1","4"
"4","2","02/05/2007","2","5","2007","205","73","506","22/07/2012","22","7","2012","5","35","1600","1","649","509","0","00:00.0","0","0","0","62","27","68","01:16.6","76.6","47","11847","9","1","4"
"4","2","02/05/2007","2","5","2007","205","73","506","21/10/2012","21","10","2012","5","2","4040","2","649","509","0","00:00.0","0","0","0","62","27","68","01:16.6","76.6","47","11847","9","1","4"
"4","2","02/05/2007","2","5","2007","205","73","506","17/06/2012","17","6","2012","5","2","2200","2","649","509","0","00:00.0","0","0","0","62","27","68","01:16.6","76.6","47","11847","9","1","4"
"4","2","02/05/2007","2","5","2007","205","73","506","03/07/2011","3","7","2011","4","2","2200","1","648","509","0","00:00.0","0","0","0","62","27","68","01:16.6","76.6","47","11847","9","1","4"
"4","2","02/05/2007","2","5","2007","205","73","506","05/07/2009","5","7","2009","2","7","1600","3","648","509","0","01:30.6","90.6","39.74","0","62","27","68","01:16.6","76.6","47","11847","9","1","4"
"4","2","02/05/2007","2","5","2007","205","73","506","02/05/2010","2","5","2010","3","2","2100","1","201","509","1","01:23.1","83.1","43.32","180","62","27","68","01:16.6","76.6","47","11847","9","1","4"
"4","2","02/05/2007","2","5","2007","205","73","506","26/09/2010","26","9","2010","3","20","1600","1","254","509","1","01:21.9","81.9","43.96","168","62","27","68","01:16.6","76.6","47","11847","9","1","4"
"4","2","02/05/2007","2","5","2007","205","73","506","04/09/2011","4","9","2011","4","7","2200","1","391","509","1","01:17.0","77","46.75","540","62","27","68","01:16.6","76.6","47","11847","9","1","4"
"4","2","02/05/2007","2","5","2007","205","73","506","07/08/2011","7","8","2011","4","2","2200","1","391","509","1","01:19.4","79.4","45.34","252","62","27","68","01:16.6","76.6","47","11847","9","1","4"
"4","2","02/05/2007","2","5","2007","205","73","506","21/08/2011","21","8","2011","4","2","2600","1","391","509","1","01:19.7","79.7","45.17","2704","62","27","68","01:16.6","76.6","47","11847","9","1","4"
"4","2","02/05/2007","2","5","2007","205","73","506","18/09/2011","18","9","2011","4","2","2600","1","391","509","1","01:21.3","81.3","44.28","540","62","27","68","01:16.6","76.6","47","11847","9","1","4"
"4","2","02/05/2007","2","5","2007","205","73","506","12/07/2012","12","7","2012","5","28","2200","1","649","509","1","01:16.8","76.8","46.88","384","62","27","68","01:16.6","76.6","47","11847","9","1","4"
"4","2","02/05/2007","2","5","2007","205","73","506","02/09/2012","2","9","2012","5","7","2200","1","649","509","1","01:17.9","77.9","46.21","540","62","27","68","01:16.6","76.6","47","11847","9","1","4"
"4","2","02/05/2007","2","5","2007","205","73","506","23/05/2010","23","5","2010","3","2","2240","2","649","509","1","01:23.9","83.9","42.91","180","62","27","68","01:16.6","76.6","47","11847","9","1","4"
"4","2","02/05/2007","2","5","2007","205","73","506","29/05/2010","29","5","2010","3","22","1700","1","649","509","1","01:24.0","84","42.86","252","62","27","68","01:16.6","76.6","47","11847","9","1","4"
"4","2","02/05/2007","2","5","2007","205","73","506","17/10/2010","17","10","2010","3","2","2600","1","649","509","1","01:24.1","84.1","42.81","360","62","27","68","01:16.6","76.6","47","11847","9","1","4"
"4","2","02/05/2007","2","5","2007","205","73","506","05/06/2011","5","6","2011","4","2","1700","1","648","509","1","01:18.1","78.1","46.09","252","62","27","68","01:16.6","76.6","47","11847","9","1","4"
"4","2","02/05/2007","2","5","2007","205","73","506","10/07/2010","10","7","2010","3","7","1600","1","648","509","1","01:19.2","79.2","45.45","275","62","27","68","01:16.6","76.6","47","11847","9","1","4"
"4","2","02/05/2007","2","5","2007","205","73","506","22/08/2010","22","8","2010","3","2","1700","1","648","509","1","01:21.6","81.6","44.12","288","62","27","68","01:16.6","76.6","47","11847","9","1","4"
"4","2","02/05/2007","2","5","2007","205","73","506","31/10/2009","31","10","2009","2","37","1600","1","648","509","1","01:29.3","89.3","40.31","80","62","27","68","01:16.6","76.6","47","11847","9","1","4"
"4","2","02/05/2007","2","5","2007","205","73","506","25/07/2009","25","7","2009","2","49","1600","1","648","509","1","01:33.2","93.2","38.63","105","62","27","68","01:16.6","76.6","47","11847","9","1","4"
"4","2","02/05/2007","2","5","2007","205","73","506","04/07/2010","4","7","2010","3","2","2200","1","728","509","1","01:21.2","81.2","44.33","288","62","27","68","01:16.6","76.6","47","11847","9","1","4"
"4","2","02/05/2007","2","5","2007","205","73","506","25/04/2010","25","4","2010","3","49","1640","1","201","509","2","01:20.6","80.6","44.67","105","62","27","68","01:16.6","76.6","47","11847","9","1","4"
"4","2","02/05/2007","2","5","2007","205","73","506","09/05/2010","9","5","2010","3","45","1600","1","201","509","2","01:20.7","80.7","44.61","105","62","27","68","01:16.6","76.6","47","11847","9","1","4"
"4","2","02/05/2007","2","5","2007","205","73","506","05/08/2012","5","8","2012","5","34","1600","1","590","509","2","01:19.1","79.1","45.51","150","62","27","68","01:16.6","76.6","47","11847","9","1","4"
"4","2","02/05/2007","2","5","2007","205","73","506","16/09/2012","16","9","2012","5","17","2060","2","649","509","2","00:00.0","0","0","53","62","27","68","01:16.6","76.6","47","11847","9","1","4"
"4","2","02/05/2007","2","5","2007","205","73","506","29/05/2011","29","5","2011","4","49","1600","1","649","509","2","01:18.5","78.5","45.86","189","62","27","68","01:16.6","76.6","47","11847","9","1","4"
"4","2","02/05/2007","2","5","2007","205","73","506","17/04/2011","17","4","2011","4","2","1700","1","649","509","2","01:18.9","78.9","45.63","140","62","27","68","01:16.6","76.6","47","11847","9","1","4"
"4","2","02/05/2007","2","5","2007","205","73","506","11/08/2012","11","8","2012","5","2","2220","2","649","509","2","01:19.0","79","45.57","180","62","27","68","01:16.6","76.6","47","11847","9","1","4"
"4","2","02/05/2007","2","5","2007","205","73","506","03/10/2010","3","10","2010","3","49","2200","1","649","509","2","01:19.4","79.4","45.34","715.1","62","27","68","01:16.6","76.6","47","11847","9","1","4"
"4","2","02/05/2007","2","5","2007","205","73","506","24/06/2012","24","6","2012","5","49","1609","1","649","509","2","01:19.9","79.9","45.06","89","62","27","68","01:16.6","76.6","47","11847","9","1","4"
"4","2","02/05/2007","2","5","2007","205","73","506","09/10/2011","9","10","2011","4","35","2100","1","649","509","2","01:20.6","80.6","44.67","105","62","27","68","01:16.6","76.6","47","11847","9","1","4"
"4","2","02/05/2007","2","5","2007","205","73","506","30/10/2011","30","10","2011","4","2","4020","2","649","509","2","01:23.6","83.6","43.06","300","62","27","68","01:16.6","76.6","47","11847","9","1","4"
"4","2","02/05/2007","2","5","2007","205","73","506","10/10/2009","10","10","2009","2","7","1600","1","649","509","2","01:25.4","85.4","42.15","40","62","27","68","01:16.6","76.6","47","11847","9","1","4"
"4","2","02/05/2007","2","5","2007","205","73","506","08/08/2010","8","8","2010","3","42","1600","1","728","509","2","01:18.0","78","46.15","252","62","27","68","01:16.6","76.6","47","11847","9","1","4"
"4","2","02/05/2007","2","5","2007","205","73","506","08/07/2012","8","7","2012","5","45","2100","1","744","509","2","01:19.2","79.2","45.45","105","62","27","68","01:16.6","76.6","47","11847","9","1","4"
"4","2","02/05/2007","2","5","2007","205","73","506","11/09/2011","11","9","2011","4","45","2100","1","391","509","3","01:19.8","79.8","45.11","189","62","27","68","01:16.6","76.6","47","11847","9","1","4"
"4","2","02/05/2007","2","5","2007","205","73","506","03/06/2012","3","6","2012","5","2","1600","1","649","509","3","01:16.6","76.6","47","180","62","27","68","01:16.6","76.6","47","11847","9","1","4"
"4","2","02/05/2007","2","5","2007","205","73","506","31/10/2010","31","10","2010","3","45","1600","1","649","509","3","01:18.8","78.8","45.69","38","62","27","68","01:16.6","76.6","47","11847","9","1","4"
"4","2","02/05/2007","2","5","2007","205","73","506","04/09/2010","4","9","2010","3","7","1600","1","649","509","3","01:19.6","79.6","45.23","108","62","27","68","01:16.6","76.6","47","11847","9","1","4"
"4","2","02/05/2007","2","5","2007","205","73","506","23/09/2012","23","9","2012","5","42","2600","1","649","509","3","01:20.0","80","45","160","62","27","68","01:16.6","76.6","47","11847","9","1","4"
"4","2","02/05/2007","2","5","2007","205","73","506","13/05/2012","13","5","2012","5","2","2200","1","649","509","3","01:21.2","81.2","44.33","96","62","27","68","01:16.6","76.6","47","11847","9","1","4"
"4","2","02/05/2007","2","5","2007","205","73","506","19/09/2010","19","9","2010","3","2","2220","2","649","509","3","01:21.6","81.6","44.12","96","62","27","68","01:16.6","76.6","47","11847","9","1","4"
"4","2","02/05/2007","2","5","2007","205","73","506","26/06/2010","26","6","2010","3","46","1600","1","649","509","3","01:22.7","82.7","43.53","45","62","27","68","01:16.6","76.6","47","11847","9","1","4"
"4","2","02/05/2007","2","5","2007","205","73","506","20/06/2010","20","6","2010","3","49","1609","1","648","509","3","01:20.8","80.8","44.55","72","62","27","68","01:16.6","76.6","47","11847","9","1","4"
"4","2","02/05/2007","2","5","2007","205","73","506","20/09/2009","20","9","2009","2","45","1600","1","648","509","3","01:23.9","83.9","42.91","180","62","27","68","01:16.6","76.6","47","11847","9","1","4"
"4","2","02/05/2007","2","5","2007","205","73","506","02/08/2010","2","8","2010","3","41","1600","1","728","509","3","01:19.1","79.1","45.51","48","62","27","68","01:16.6","76.6","47","11847","9","1","4"
"4","2","02/05/2007","2","5","2007","205","73","506","17/07/2011","17","7","2011","4","20","2100","1","391","509","4","01:18.6","78.6","45.8","50","62","27","68","01:16.6","76.6","47","11847","9","1","4"
"4","2","02/05/2007","2","5","2007","205","73","506","16/09/2012","16","9","2012","5","17","2060","2","590","509","4","00:00.0","0","0","0","62","27","68","01:16.6","76.6","47","11847","9","1","4"
"4","2","02/05/2007","2","5","2007","205","73","506","19/08/2012","19","8","2012","5","2","2200","1","649","509","4","01:17.9","77.9","46.21","104","62","27","68","01:16.6","76.6","47","11847","9","1","4"
"4","2","02/05/2007","2","5","2007","205","73","506","15/10/2011","15","10","2011","4","7","2600","1","649","509","4","01:18.8","78.8","45.69","228","62","27","68","01:16.6","76.6","47","11847","9","1","4"
"4","2","02/05/2007","2","5","2007","205","73","506","09/09/2012","9","9","2012","5","45","2100","1","649","509","4","01:18.8","78.8","45.69","125","62","27","68","01:16.6","76.6","47","11847","9","1","4"
